<svg version="1.1" xmlns="http://www.w3.org/2000/svg" xmlns:xlink="http://www.w3.org/1999/xlink" viewBox="0 0 172 172">
    <g transform="translate(-16.34,-16.34) scale(1.19,1.19)">
        <g fill="none" fill-rule="nonzero" stroke="none" stroke-width="1" stroke-linecap="butt" stroke-linejoin="miter"
           stroke-miterlimit="10" stroke-dasharray="" stroke-dashoffset="0" font-family="none" font-weight="none"
           font-size="none" text-anchor="none" style="mix-blend-mode: normal">
            <path d="M0,172v-172h172v172z" fill="none"></path>
            <g fill="#00b5ad">
                <path d="M141.04,13.76h-110.08c-9.4944,0 -17.2,7.7056 -17.2,17.2v110.08c0,9.4944 7.7056,17.2 17.2,17.2h110.08c9.4944,0 17.2,-7.7056 17.2,-17.2v-110.08c0,-9.4944 -7.7056,-17.2 -17.2,-17.2zM89.44,137.6h-5.16c-23.736,0 -43,-19.264 -43,-43v-51.6c0,-4.7472 3.8528,-8.6 8.6,-8.6c4.7472,0 8.6,3.8528 8.6,8.6v53.32c0,13.3128 10.7672,24.08 24.08,24.08h6.88c13.3128,0 24.08,-10.7672 24.08,-24.08c0,-13.3128 -10.7672,-24.08 -24.08,-24.08h-8.6c-4.7472,0 -8.6,-3.8528 -8.6,-8.6c0,-4.7472 3.8528,-8.6 8.6,-8.6h8.6c22.8072,0 41.28,18.4728 41.28,41.28c0,22.8072 -18.4728,41.28 -41.28,41.28z"></path>
            </g>
        </g>
    </g>
</svg>